\relax 
\providecommand\hyper@newdestlabel[2]{}
\providecommand\HyField@AuxAddToFields[1]{}
\providecommand\HyField@AuxAddToCoFields[2]{}
\@writefile{toc}{\contentsline {chapter}{Listings}{ii}{dummy.1}\protected@file@percent }
\@writefile{toc}{\contentsline {chapter}{\numberline {1}Introduction}{1}{chapter.1}\protected@file@percent }
\@writefile{lof}{\addvspace {10\p@ }}
\@writefile{lot}{\addvspace {10\p@ }}
\newlabel{ch:Intro}{{1}{1}{Introduction}{chapter.1}{}}
\@writefile{toc}{\contentsline {section}{\numberline {1.1}Codebase structure}{1}{section.1.1}\protected@file@percent }
\newlabel{sc:Struct}{{1.1}{1}{Codebase structure}{section.1.1}{}}
\@writefile{lof}{\contentsline {figure}{\numberline {1.1}{\ignorespaces Codebase hierarchical structure.}}{2}{figure.caption.3}\protected@file@percent }
\providecommand*\caption@xref[2]{\@setref\relax\@undefined{#1}}
\newlabel{fig:CodeBaseStruct}{{1.1}{2}{Codebase hierarchical structure}{figure.caption.3}{}}
\@writefile{toc}{\contentsline {section}{\numberline {1.2}Licence}{2}{section.1.2}\protected@file@percent }
\newlabel{sec:Licence}{{1.2}{2}{Licence}{section.1.2}{}}
\@writefile{toc}{\contentsline {chapter}{\numberline {2}Utilities}{3}{chapter.2}\protected@file@percent }
\@writefile{lof}{\addvspace {10\p@ }}
\@writefile{lot}{\addvspace {10\p@ }}
\newlabel{ch:Utils}{{2}{3}{Utilities}{chapter.2}{}}
\@writefile{toc}{\contentsline {section}{\numberline {2.1}MATLAB\textsuperscript  {\texttrademark }/GNU Octave}{3}{section.2.1}\protected@file@percent }
\newlabel{sec:Matlab}{{2.1}{3}{MATLAB\textsuperscript {\texttrademark }/GNU Octave}{section.2.1}{}}
\@writefile{toc}{\contentsline {subsection}{\numberline {2.1.1}\texttt  {isEven}}{4}{subsection.2.1.1}\protected@file@percent }
\newlabel{sec:isEven}{{2.1.1}{4}{\texttt {isEven}}{subsection.2.1.1}{}}
\@writefile{lol}{\contentsline {lstlisting}{\numberline {2.1}{\ignorespaces \texttt  {isEven} MATLAB\textsuperscript  {\texttrademark } function header.}}{4}{lstlisting.2.1}\protected@file@percent }
\@writefile{lol}{\contentsline {lstlisting}{\numberline {2.2}{\ignorespaces \texttt  {isEven} fist example. Finding out whether the \textit  {Nyquist} frequency is present in a single-sided spectrum}}{5}{lstlisting.2.2}\protected@file@percent }
\@writefile{lol}{\contentsline {lstlisting}{\numberline {2.3}{\ignorespaces \texttt  {isEven} second example. Pick the largest even value from a two-dimensional matrix and use it to seed a random generator.}}{5}{lstlisting.2.3}\protected@file@percent }
\@writefile{toc}{\contentsline {subsection}{\numberline {2.1.2}\texttt  {isOdd}}{5}{subsection.2.1.2}\protected@file@percent }
\newlabel{sec:isOdd}{{2.1.2}{5}{\texttt {isOdd}}{subsection.2.1.2}{}}
\@writefile{lol}{\contentsline {lstlisting}{\numberline {2.4}{\ignorespaces \texttt  {isOdd} MATLAB\textsuperscript  {\texttrademark } function header.}}{6}{lstlisting.2.4}\protected@file@percent }
\@writefile{lol}{\contentsline {lstlisting}{\numberline {2.5}{\ignorespaces Example of \texttt  {isOdd} function. Pick only odd-numbered samples to undersample a signal vector}}{6}{lstlisting.2.5}\protected@file@percent }
\@writefile{toc}{\contentsline {subsection}{\numberline {2.1.3}\texttt  {intersectThree}}{7}{subsection.2.1.3}\protected@file@percent }
\newlabel{sec:intersectThree}{{2.1.3}{7}{\texttt {intersectThree}}{subsection.2.1.3}{}}
\@writefile{lol}{\contentsline {lstlisting}{\numberline {2.6}{\ignorespaces \texttt  {intersectThree} MATLAB\textsuperscript  {\texttrademark } function header.}}{7}{lstlisting.2.6}\protected@file@percent }
\@writefile{lol}{\contentsline {lstlisting}{\numberline {2.7}{\ignorespaces Example with \texttt  {intersectThree} MATLAB\textsuperscript  {\texttrademark } function. Find common values among three vectors holding uniform angle intervales generated with different angular steps.}}{8}{lstlisting.2.7}\protected@file@percent }
\@writefile{toc}{\contentsline {subsection}{\numberline {2.1.4}\texttt  {randUniqRows}}{8}{subsection.2.1.4}\protected@file@percent }
\newlabel{sec:randUniquRows}{{2.1.4}{8}{\texttt {randUniqRows}}{subsection.2.1.4}{}}
\@writefile{lol}{\contentsline {lstlisting}{\numberline {2.8}{\ignorespaces \texttt  {randUniqRows} MATLAB\textsuperscript  {\texttrademark } function header.}}{8}{lstlisting.2.8}\protected@file@percent }
\@writefile{lol}{\contentsline {lstlisting}{\numberline {2.9}{\ignorespaces Example with \texttt  {randUniqRows} MATLAB\textsuperscript  {\texttrademark } function. Pick at random some time-domain recordings that have different RMS values (based on a specified tolerance).}}{9}{lstlisting.2.9}\protected@file@percent }
\@writefile{toc}{\contentsline {chapter}{\numberline {3}Active Noise Control}{10}{chapter.3}\protected@file@percent }
\@writefile{lof}{\addvspace {10\p@ }}
\@writefile{lot}{\addvspace {10\p@ }}
\newlabel{ch:ANC}{{3}{10}{Active Noise Control}{chapter.3}{}}
\@writefile{toc}{\contentsline {section}{\numberline {3.1}Active Control}{10}{section.3.1}\protected@file@percent }
\newlabel{sec:ActiveControl}{{3.1}{10}{Active Control}{section.3.1}{}}
\@writefile{lof}{\contentsline {figure}{\numberline {3.1}{\ignorespaces Block diagram of a generic active control system.}}{11}{figure.caption.13}\protected@file@percent }
\newlabel{fig:ANCBlock}{{3.1}{11}{Block diagram of a generic active control system}{figure.caption.13}{}}
\newlabel{eq:ANCErr}{{3.1}{12}{Descrpition of the ANC problem}{equation.3.1.1}{}}
\@writefile{toc}{\contentsline {subsection}{\numberline {3.1.1}Tonal control}{12}{subsection.3.1.1}\protected@file@percent }
\newlabel{sec:TonalControl}{{3.1.1}{12}{Tonal control}{subsection.3.1.1}{}}
\@writefile{toc}{\contentsline {subsubsection}{\numberline {3.1.1.1}Tonal control formulation}{12}{subsubsection.3.1.1.1}\protected@file@percent }
\newlabel{sec:TonalANCFormulation}{{3.1.1.1}{12}{Tonal control formulation}{subsubsection.3.1.1.1}{}}
\newlabel{eq:ReferenceSignal}{{3.2a}{12}{Tonal control formulation}{equation.3.1.2a}{}}
\newlabel{eq:ErrorSignal}{{3.2b}{12}{Tonal control formulation}{equation.3.1.2b}{}}
\newlabel{eq:TonalANCErr}{{3.3}{13}{Tonal control formulation}{equation.3.1.3}{}}
\newlabel{eq:TonalANCErrFF}{{3.4}{13}{Tonal control formulation}{equation.3.1.4}{}}
\newlabel{eq:LSANCMinFunc}{{3.5}{13}{Tonal control formulation}{equation.3.1.5}{}}
\newlabel{eq:TonalANCErrFFOpt}{{3.7}{13}{Tonal control formulation}{equation.3.1.7}{}}
\@writefile{toc}{\contentsline {subsection}{\numberline {3.1.2}Optimal filter estimation}{14}{subsection.3.1.2}\protected@file@percent }
\newlabel{sec:ANCOptFilt}{{3.1.2}{14}{Optimal filter estimation}{subsection.3.1.2}{}}
\newlabel{eq:LSANCDerivative}{{3.8}{14}{Optimal filter estimation}{equation.3.1.8}{}}
\newlabel{eq:LSANCSol}{{3.9}{14}{Optimal filter estimation}{equation.3.1.9}{}}
\newlabel{eq:LSANCRegSol}{{3.10}{14}{Optimal filter estimation}{equation.3.1.10}{}}
\@writefile{toc}{\contentsline {subsection}{\numberline {3.1.3}Filtered-x LMS}{14}{subsection.3.1.3}\protected@file@percent }
\newlabel{sec:ANCFxLMS}{{3.1.3}{14}{Filtered-x LMS}{subsection.3.1.3}{}}
\newlabel{eq:FxLMS}{{3.11}{15}{Filtered-x LMS}{equation.3.1.11}{}}
\newlabel{eq:FxLMSOptU}{{3.12}{15}{Filtered-x LMS}{equation.3.1.12}{}}
\newlabel{eq:FxLMSSol}{{3.13}{15}{Filtered-x LMS}{equation.3.1.13}{}}
\newlabel{eq:FxLMSSolRegul}{{3.14}{15}{Filtered-x LMS}{equation.3.1.14}{}}
\@writefile{toc}{\contentsline {section}{\numberline {3.2}Virtual sensing}{15}{section.3.2}\protected@file@percent }
\newlabel{sec:VirtSens}{{3.2}{15}{Virtual sensing}{section.3.2}{}}
\citation{ListenerEarPress}
\citation{VirtSensReview}
\citation{VirtSensReview}
\citation{VirtSensReview}
\newlabel{fig:VirtSensConcept_Physical}{{3.2a}{16}{Control at physical sensor}{figure.caption.14}{}}
\newlabel{sub@fig:VirtSensConcept_Physical}{{a}{16}{Control at physical sensor}{figure.caption.14}{}}
\newlabel{fig:VirtSensConcept_Virtual}{{3.2b}{16}{Control at virtual sensor}{figure.caption.14}{}}
\newlabel{sub@fig:VirtSensConcept_Virtual}{{b}{16}{Control at virtual sensor}{figure.caption.14}{}}
\@writefile{lof}{\contentsline {figure}{\numberline {3.2}{\ignorespaces Local active noise control at the position of A) a physical sensor and B) a virtual sensor \cite  {VirtSensReview}.}}{16}{figure.caption.14}\protected@file@percent }
\newlabel{fig:VirtSensConcept}{{3.2}{16}{Local active noise control at the position of A) a physical sensor and B) a virtual sensor \cite {VirtSensReview}}{figure.caption.14}{}}
\@writefile{toc}{\contentsline {subsection}{\numberline {3.2.1}Remote Microphone Technique}{16}{subsection.3.2.1}\protected@file@percent }
\newlabel{sec:RMT}{{3.2.1}{16}{Remote Microphone Technique}{subsection.3.2.1}{}}
\citation{ModelingLocalANC}
\citation{RobustPerformance}
\@writefile{toc}{\contentsline {subsubsection}{\numberline {3.2.1.1}Problem formulation}{17}{subsubsection.3.2.1.1}\protected@file@percent }
\newlabel{sec:RMTFormulation}{{3.2.1.1}{17}{Problem formulation}{subsubsection.3.2.1.1}{}}
\newlabel{eq:PrimaryRefSigVec}{{3.15a}{17}{Problem formulation}{equation.3.2.15a}{}}
\newlabel{eq:PrimaryMonSigVec}{{3.15b}{17}{Problem formulation}{equation.3.2.15b}{}}
\newlabel{eq:PrimaryErrSigVec}{{3.15c}{17}{Problem formulation}{equation.3.2.15c}{}}
\newlabel{eq:TotMonSigs}{{3.16a}{17}{Problem formulation}{equation.3.2.16a}{}}
\newlabel{eq:TotErrSigs}{{3.16b}{17}{Problem formulation}{equation.3.2.16b}{}}
\@writefile{lof}{\contentsline {figure}{\numberline {3.3}{\ignorespaces Block diagram of a feed-forward active control system with the remote microphone technique. The red dashed line signifies the part relevant to the remote microphone technique.}}{18}{figure.caption.15}\protected@file@percent }
\newlabel{fig:RMTBlock}{{3.3}{18}{Block diagram of a feed-forward active control system with the remote microphone technique. The red dashed line signifies the part relevant to the remote microphone technique}{figure.caption.15}{}}
\newlabel{eq:dmEst}{{3.17}{18}{Problem formulation}{equation.3.2.17}{}}
\newlabel{eq:deEst}{{3.18}{18}{Problem formulation}{equation.3.2.18}{}}
\citation{DSPforANC}
\newlabel{eq:errEst}{{3.19}{19}{Problem formulation}{equation.3.2.19}{}}
\newlabel{eq:errDiff}{{3.20}{19}{Problem formulation}{equation.3.2.20}{}}
\newlabel{eq:sndFieldEstErr}{{3.21}{19}{Observation filters}{equation.3.2.21}{}}
\citation{DSPforANC}
\citation{DSPforANC}
\citation{ModelingLocalANC}
\newlabel{eq:LSObsFiltCostFunction}{{3.22}{20}{Observation filters}{equation.3.2.22}{}}
\newlabel{eq:Smm}{{3.23a}{20}{Observation filters}{equation.3.2.23a}{}}
\newlabel{eq:See}{{3.23b}{20}{Observation filters}{equation.3.2.23b}{}}
\newlabel{eq:Sme}{{3.23c}{20}{Observation filters}{equation.3.2.23c}{}}
\newlabel{eq:ObsFiltCSD}{{3.23}{20}{Observation filters}{equation.3.2.23c}{}}
\newlabel{eq:LSObsFiltSol}{{3.24}{20}{Observation filters}{equation.3.2.24}{}}
\newlabel{eq:errEst}{{3.25}{21}{Control}{equation.3.2.25}{}}
\newlabel{eq:GRM}{{3.26}{21}{Control}{equation.3.2.26}{}}
\newlabel{eq:LSANCRMTFunc}{{3.27}{21}{Control}{equation.3.2.27}{}}
\newlabel{eq:LSANCRMTDerivative}{{3.28}{21}{Control}{equation.3.2.28}{}}
\newlabel{eq:LSANCRMTSol}{{3.29}{21}{Control}{equation.3.2.29}{}}
\newlabel{eq:ANCRMTLeastSquaresRegSolution}{{3.30}{22}{Control}{equation.3.2.30}{}}
\newlabel{eq:FxLMSRMT}{{3.31}{22}{FxLMS solution}{equation.3.2.31}{}}
\newlabel{eq:FxLMSRMTOptU}{{3.32}{22}{FxLMS solution}{equation.3.2.32}{}}
\newlabel{eq:FxLMSSol}{{3.33}{22}{FxLMS solution}{equation.3.2.33}{}}
\newlabel{eq:FxLMSSolRegul}{{3.34}{22}{FxLMS solution}{equation.3.2.34}{}}
\@writefile{toc}{\contentsline {subsubsection}{\numberline {3.2.1.2}MATLAB\textsuperscript  {\texttrademark } implementation}{23}{subsubsection.3.2.1.2}\protected@file@percent }
\@writefile{lol}{\contentsline {lstlisting}{\numberline {3.1}{\ignorespaces \texttt  {obsFilt} MATLAB\textsuperscript  {\texttrademark } function header.}}{23}{lstlisting.3.1}\protected@file@percent }
\@writefile{toc}{\contentsline {chapter}{\numberline {4}Optimisation}{25}{chapter.4}\protected@file@percent }
\@writefile{lof}{\addvspace {10\p@ }}
\@writefile{lot}{\addvspace {10\p@ }}
\newlabel{ch:Optim}{{4}{25}{Optimisation}{chapter.4}{}}
\bibstyle{ieeetr}
\bibdata{Bibliography}
\gdef \@abspage@last{29}
